%YAML 1.1
%TAG !u! tag:unity3d.com,2011:
--- !u!114 &11400000
MonoBehaviour:
  m_ObjectHideFlags: 0
  m_CorrespondingSourceObject: {fileID: 0}
  m_PrefabInstance: {fileID: 0}
  m_PrefabAsset: {fileID: 0}
  m_GameObject: {fileID: 0}
  m_Enabled: 1
  m_EditorHideFlags: 0
  m_Script: {fileID: 11500000, guid: dffc89cf1718f58448da1ce86a50a8fb, type: 3}
  m_Name: Liver
  m_EditorClassIdentifier: 
  maxTime: 60
  alertMessages: []
  organ: 2
  alertZeroColor: {r: 1, g: 1, b: 1, a: 0}
  alertOneColor: {r: 0.8490566, g: 0.7887425, b: 0.09211465, a: 1}
  alertTwoColor: {r: 0.8679245, g: 0.11053756, b: 0.11053756, a: 1}
